…
\`6. (2 points)

``` r
# Select only pet name (animal_name) and primary breed for species Goat
goat_records <- select(filter(seattlepets, species == "Goat"), animal_name, primary_breed)

# Arrange the selected records by pet names (animal_name)
sorted_goat_records <- arrange(goat_records, animal_name)

# Display the sorted goat records
sorted_goat_records
```

    ## # A tibble: 38 × 2
    ##    animal_name     primary_breed
    ##    <chr>           <chr>        
    ##  1 Abelard         Miniature    
    ##  2 Aggie           Miniature    
    ##  3 Arya            Miniature    
    ##  4 Beans           Miniature    
    ##  5 Brussels Sprout Miniature    
    ##  6 Darcy           Miniature    
    ##  7 Fawn            Miniature    
    ##  8 Fiona           Miniature    
    ##  9 Gavin           Standard     
    ## 10 Grace           Miniature    
    ## # ℹ 28 more rows
…
``` r
library(dplyr)

# Concatenate animal_name and species into a single column named pet
seattlepets <- mutate(seattlepets, pet = paste(animal_name, species, sep = " - "))

# Select license_number and pet, then arrange by pet
sorted_records <- select(seattlepets, license_number, pet) %>%
                  arrange(pet)

# Display the sorted records
sorted_records
```

    ## # A tibble: 52,519 × 2
    ##    license_number pet                                     
    ##    <chr>          <chr>                                   
    ##  1 8001665        "\"Luci\" Lucia Rosalin Wicksugal - Dog"
    ##  2 896557         "\"Mama\" Maya - Cat"                   
    ##  3 S147119        "\"Mo\" - Cat"                          
    ##  4 353597         "'Alani - Cat"                          
    ##  5 S143106        "'Murca - Dog"                          
    ##  6 573722         "- - Cat"                               
    ##  7 S126229        "1 - Cat"                               
    ##  8 S126230        "2 - Cat"                               
    ##  9 133239         "30 Weight - Cat"                       
    ## 10 S142492        "7's - Dog"                             
    ## # ℹ 52,509 more rows
…
\`9. (2 points)

``` r
top_10_names <- seattlepets %>% 
filter(animal_name %in% c( "Lucy"  , "Charlie" , "Luna" , "Bella" , "Max"    , 
                           "Daisy" , "Molly"   , "Jack" , "Lily"  , "Stella" ))
top_10_names
```

    ## # A tibble: 2,974 × 8
    ##    license_issue_date license_number animal_name species primary_breed          
    ##    <date>             <chr>          <chr>       <chr>   <chr>                  
    ##  1 2018-11-25         S120480        Charlie     Dog     Retriever, Labrador    
    ##  2 2018-11-03         829563         Max         Dog     Retriever, Labrador    
    ##  3 2018-10-29         732106         Lily        Cat     Domestic Shorthair     
    ##  4 2018-11-25         895808         Max         Cat     Domestic Shorthair     
    ##  5 2018-11-26         834841         Daisy       Dog     Terrier, American Pit …
    ##  6 2018-12-13         8003804        Charlie     Dog     Border Collie          
    ##  7 2018-11-06         S125292        Jack        Cat     Domestic Shorthair     
    ##  8 2018-11-01         835179         Stella      Dog     Retriever, Labrador    
    ##  9 2018-12-14         950094         Molly       Dog     Retriever, Labrador    
    ## 10 2018-11-24         S137301        Lucy        Dog     Hound                  
    ## # ℹ 2,964 more rows
    ## # ℹ 3 more variables: secondary_breed <chr>, zip_code <chr>, pet <chr>

\`a. What does the above code chunk do?

\`b. Plot the counts of the pet names (animal_name) in top_10_names

``` r
top_10_names <- seattlepets %>% 
filter(animal_name %in% c( "Lucy"  , "Charlie" , "Luna" , "Bella" , "Max"    , 
                           "Daisy" , "Molly"   , "Jack" , "Lily"  , "Stella" ))
top_10_names
```

    ## # A tibble: 2,974 × 8
    ##    license_issue_date license_number animal_name species primary_breed          
    ##    <date>             <chr>          <chr>       <chr>   <chr>                  
    ##  1 2018-11-25         S120480        Charlie     Dog     Retriever, Labrador    
    ##  2 2018-11-03         829563         Max         Dog     Retriever, Labrador    
    ##  3 2018-10-29         732106         Lily        Cat     Domestic Shorthair     
    ##  4 2018-11-25         895808         Max         Cat     Domestic Shorthair     
    ##  5 2018-11-26         834841         Daisy       Dog     Terrier, American Pit …
    ##  6 2018-12-13         8003804        Charlie     Dog     Border Collie          
    ##  7 2018-11-06         S125292        Jack        Cat     Domestic Shorthair     
    ##  8 2018-11-01         835179         Stella      Dog     Retriever, Labrador    
    ##  9 2018-12-14         950094         Molly       Dog     Retriever, Labrador    
    ## 10 2018-11-24         S137301        Lucy        Dog     Hound                  
    ## # ℹ 2,964 more rows
    ## # ℹ 3 more variables: secondary_breed <chr>, zip_code <chr>, pet <chr>
…
